{
  "images" : [
    {
      "idiom" : "universal",
      "filename" : "video tab.png",
      "scale" : "1x"
    },
    {
      "idiom" : "universal",
      "filename" : "video tab@2x.png",
      "scale" : "2x"
    },
    {
      "idiom" : "universal",
      "filename" : "video tab@3x.png",
      "scale" : "3x"
    }
  ],
  "info" : {
    "version" : 1,
    "author" : "xcode"
  },
  "properties" : {
    "template-rendering-intent" : "template",
    "preserves-vector-representation" : true
  }
}